{
    com.badlogic.gdx.graphics.g2d.BitmapFont: {
        default: { file: fonts/Kingthings_Calligraphica.fnt,
                        scaledSize: -1,
                        markupEnabled: false,
                        flip : false },
        large: { file: fonts/Kingthings_Calligraphica_Large.fnt,
                        scaledSize: -1,
                        markupEnabled: false,
                        flip: false },
        small: { file: fonts/Kingthings_Calligraphica_Small.fnt,
                        scaledSize: -1,
                        markupEnabled: false,
                        flip: false }
    },
    com.badlogic.gdx.graphics.Color: {
        white: { r: 1, g: 1, b: 1, a: 1 },
        green: { r: 0, g: 1, b: 0, a: 1 },
        gray:  { r: 0.5, g: 0.5, b: 0.5, a: 1 },
        black: { r: 0, g: 0, b: 0, a: 1 }
    },
    com.badlogic.gdx.scenes.scene2d.ui.Label$LabelStyle: {
        default: { font: default, fontColor: white },
        label_Large: { font: large, fontColor: white },
        label_Small: { font: small, fontColor: white },
        labelBox_Small: { background: TextBox_Light, font: large, fontColor: white },
        labelBox_Normal: { background: TextBox, font: default, fontColor: white },
        labelBox_Large: { background: TextBox, font: large, fontColor: white }
    },
    com.badlogic.gdx.scenes.scene2d.ui.TextButton$TextButtonStyle: {
        default: { font: small, fontColor: white },
        textButton: { down: TextBox_Dark, up: TextBox_Light, disabled: TextBox_Dark, font: small, fontColor: white }
    },
    com.badlogic.gdx.scenes.scene2d.ui.TextField$TextFieldStyle: {
        default: { font: default, fontColor: white },
        textField: { background: TextBox_Light, disabledBackground: TextBox_Dark, font: small, fontColor: white }
    },
    com.badlogic.gdx.scenes.scene2d.ui.Slider$SliderStyle: {
        default-horizontal: { background: Slider_Horizontal, knob: Scroll_Thumb }
    },
    com.badlogic.gdx.scenes.scene2d.ui.ScrollPane$ScrollPaneStyle: {
        default: { vScroll: Slider_Vertical, hScrollKnob: Scroll_Thumb, background: TextBox_Light, hScroll: Slider_Horizontal, vScrollKnob: Scroll_Thumb }
    }
}